<svg xmlns="http://www.w3.org/2000/svg" viewBox="0 0 32 32">
  <title>iconbank</title>
  <g id="web_page">
    <polygon points="22 3 7 3 7 31 28 31 28 9 22 9 22 3" fill="#fff" />
    <path d="M22,3H7V31H28V9Zm5,27H8V4H22V9h5Z" fill="#dadada" />
    <polygon points="20 1 5 1 5 29 26 29 26 7 20 1" fill="#fff" />
    <path d="M20,1H5V29H26V7Zm1,2.41L23.59,6H21ZM25,28H6V2H20V7h5Z" fill="#dadada" />
    <path d="M15.5,9A7.5,7.5,0,1,1,8,16.5,7.5,7.5,0,0,1,15.5,9m0-1A8.5,8.5,0,1,0,24,16.5,8.51,8.51,0,0,0,15.5,8Z"
      fill="#ff7b00" />
    <path
      d="M23,17a4.18,4.18,0,0,0,0-1H20a14,14,0,0,0-.39-3h2.54a9.43,9.43,0,0,0-.64-1H19.31A8.77,8.77,0,0,0,18,9.44a7.38,7.38,0,0,0-5,0A8.77,8.77,0,0,0,11.69,12H9.51a9.43,9.43,0,0,0-.64,1h2.54A14,14,0,0,0,11,16H8a4.18,4.18,0,0,0,0,1h3a14,14,0,0,0,.39,3H8.87a9.43,9.43,0,0,0,.64,1h2.18A8.77,8.77,0,0,0,13,23.56a7.38,7.38,0,0,0,5,0A8.77,8.77,0,0,0,19.31,21h2.18a9.43,9.43,0,0,0,.64-1H19.59A14,14,0,0,0,20,17Zm-4.71-5H16V9.1A4.69,4.69,0,0,1,18.26,12ZM15,9.1V12H12.74A4.69,4.69,0,0,1,15,9.1ZM12.43,13H15v3H12A14.09,14.09,0,0,1,12.43,13ZM12,17h3v3H12.43A14.09,14.09,0,0,1,12,17Zm.73,4H15v2.9A4.69,4.69,0,0,1,12.74,21ZM16,23.9V21h2.26A4.69,4.69,0,0,1,16,23.9ZM18.57,20H16V17h3A14.09,14.09,0,0,1,18.57,20ZM16,16V13h2.57A14.09,14.09,0,0,1,19,16Z"
      fill="#ffab00" />
  </g>
</svg>
