{{- define "response" -}}
  {{- $items := slice -}}

  {{- range .Data.Pages -}}
    {{- $thumbnailUrl := "" -}}
    {{- if (isset .Params "thumbnail") -}}
      {{- $thumbnailResource := .Resources.GetMatch .Params.Thumbnail -}}
      {{- $thumbnailUrl = $thumbnailResource.RelPermalink -}}
    {{- end -}}

    {{- $item := dict
      "date"      (.Date.Format "2006-01-02")
      "excerpt"   (cond (isset .Params "excerpt") .Params.Excerpt "")
      "permalink" .RelPermalink
      "thumbnail" $thumbnailUrl
      "title"     .Title
    -}}
    {{- $items = $items | append $item -}}
  {{- end -}}

  {{- if (eq site.Params.search.minify true) -}}
    {{- $items | jsonify -}}
  {{- else -}}
    {{- $jsonifyOptions := dict "indent" "  " -}}
    {{- $items | jsonify $jsonifyOptions -}}
  {{- end -}}

{{- end -}}
