{
  "latestRelease": "2021-06-01",
  "latestStableVersion": "1.6.5",
  "downloads": {
    "launcher": [
      {
        "platform": "Windows",
        "url": "https://gitlab.com/solarus-games/solarus/-/package_files/9016261/download",
        "version": "1.6.5",
        "size": 16867928
      },
      {
        "platform": "macOS",
        "url": "https://gitlab.com/solarus-games/solarus/-/package_files/8119898/download",
        "version": "1.6.4",
        "size": 26920734
      },
      {
        "platform": "Linux",
        "url": "https://gitlab.com/solarus-games/solarus-snap/-/package_files/9589389/download",
        "version": "1.6.5",
        "size": 160706560
      }
    ],
    "questEditor": [
      {
        "platform": "Windows",
        "url": "https://gitlab.com/solarus-games/solarus-quest-editor/-/package_files/9016241/download",
        "version": "1.6.4",
        "size": 135778208
      },
      {
        "platform": "macOS",
        "url": "https://gitlab.com/solarus-games/solarus-quest-editor/-/package_files/8119905/download",
        "version": "1.6.4",
        "size": 175226560
      },
      {
        "platform": "Linux",
        "url": "https://gitlab.com/solarus-games/solarus-snap/-/package_files/9589389/download",
        "version": "1.6.5",
        "size": 160706560
      }
    ]
  }
}
