{{- define "response" -}}

  {{- $currentPage := . -}}
  {{- $defaultPage := $currentPage -}}
  {{- range where $currentPage.AllTranslations "Lang" site.Params.defaultLanguageCode -}}
    {{- $defaultPage = . -}}
  {{- end -}}
  {{- $params := dict
    "Age"                 (cond (eq $currentPage.Params.Age nil) $defaultPage.Params.Age $currentPage.Params.Age)
    "Controls"            (cond (eq $currentPage.Params.Controls nil) $defaultPage.Params.Controls $currentPage.Params.Controls)
    "Download"            (cond (eq $currentPage.Params.Download nil) $defaultPage.Params.Download $currentPage.Params.Download)
    "DownloadType"        (cond (eq $currentPage.Params.DownloadType nil) $defaultPage.Params.DownloadType $currentPage.Params.DownloadType)
    "Developer"           (cond (eq $currentPage.Params.Developer nil) $defaultPage.Params.Developer $currentPage.Params.Developer)
    "Excerpt"             (cond (eq $currentPage.Params.Excerpt nil) $defaultPage.Params.Excerpt $currentPage.Params.Excerpt)
    "Genre"               (cond (eq $currentPage.Params.Genre nil) $defaultPage.Params.Genre $currentPage.Params.Genre)
    "Id"                  (cond (eq $currentPage.Params.Id nil) $defaultPage.Params.Id $currentPage.Params.Id)
    "InitialReleaseDate"  (cond (eq $currentPage.Params.InitialReleaseDate nil) $defaultPage.Params.InitialReleaseDate $currentPage.Params.InitialReleaseDate)
    "Languages"           (cond (eq $currentPage.Params.Languages nil) $defaultPage.Params.Languages $currentPage.Params.Languages)
    "License"             (cond (eq $currentPage.Params.License nil) $defaultPage.Params.License $currentPage.Params.License)
    "LatestUpdateDate"    (cond (eq $currentPage.Params.LatestUpdateDate nil) $defaultPage.Params.LatestUpdateDate $currentPage.Params.LatestUpdateDate)
    "MaximumPlayers"      (cond (eq $currentPage.Params.MaximumPlayers nil) $defaultPage.Params.MaximumPlayers $currentPage.Params.MaximumPlayers)
    "MinimumPlayers"      (cond (eq $currentPage.Params.MinimumPlayers nil) $defaultPage.Params.MinimumPlayers $currentPage.Params.MinimumPlayers)
    "Screenshots"         (cond (eq $currentPage.Params.Screenshots nil) $defaultPage.Params.Screenshots $currentPage.Params.Screenshots)
    "SolarusVersion"      (cond (eq $currentPage.Params.SolarusVersion nil) $defaultPage.Params.SolarusVersion $currentPage.Params.SolarusVersion)
    "SourceCode"          (cond (eq $currentPage.Params.SourceCode nil) $defaultPage.Params.SourceCode $currentPage.Params.SourceCode)
    "Thumbnail"           (cond (eq $currentPage.Params.Thumbnail nil) $defaultPage.Params.Thumbnail $currentPage.Params.Thumbnail)
    "Title"               (cond (eq $currentPage.Params.Title nil) $defaultPage.Params.Title $currentPage.Params.Title)
    "Version"             (cond (eq $currentPage.Params.Version nil) $defaultPage.Params.Version $currentPage.Params.Version)
    "Walkthroughs"        (cond (eq $currentPage.Params.Walkthroughs nil) $defaultPage.Params.Walkthroughs $currentPage.Params.Walkthroughs)
    "Website"             (cond (eq $currentPage.Params.Website nil) $defaultPage.Params.Website $currentPage.Params.Website)
  -}}

  {{- $download := cond (eq $params.DownloadType nil) (cond (eq $params.Download nil) "" $params.Download) "" -}}

  {{- $thumbnailUrl := "" -}}
  {{- if (not (eq $params.Thumbnail nil)) -}}
    {{- $thumbnailResource := .Resources.GetMatch $params.Thumbnail -}}
    {{- $thumbnailUrl = $thumbnailResource.RelPermalink -}}
  {{- end -}}

  {{- $screenshotUrls := slice -}}
  {{- if (not (eq $params.Screenshots nil)) -}}
    {{- $resources := .Resources -}}
    {{- range $screenshots := $params.Screenshots -}}
      {{- $screenshotResource := $resources.GetMatch . -}}
      {{- $screenshotUrl := $screenshotResource.RelPermalink -}}
      {{- $screenshotUrls = $screenshotUrls | append $screenshotUrl -}}
    {{- end -}}
  {{- end -}}

  {{- $item := dict
    "age"                 (cond (eq $params.Age nil) "" $params.Age)
    "content"             .Plain
    "controls"            (cond (eq $params.Controls nil) slice $params.Controls)
    "developer"           (cond (eq $params.Developer nil) "" $params.Developer)
    "download"            $download
    "excerpt"             (cond (eq $params.Excerpt nil) "" $params.Excerpt)
    "genre"               (cond (eq $params.Genre nil) slice $params.Genre)
    "id"                  (cond (eq $params.Id nil) "" $params.Id)
    "languages"           (cond (eq $params.Languages nil) slice $params.Languages)
    "license"             (cond (eq $params.License nil) slice $params.License)
    "maximumPlayers"      (cond (eq $params.MaximumPlayers nil) 1 $params.MaximumPlayers)
    "minimumPlayers"      (cond (eq $params.MaximumPlayers nil) 1 $params.MaximumPlayers)
    "page"                .RelPermalink
    "initialReleaseDate"  (cond (eq $params.InitialReleaseDate nil) "" $params.InitialReleaseDate)
    "latestUpdateDate"    (cond (eq $params.LatestUpdateDate nil) "" $params.LatestUpdateDate)
    "screenshots"         $screenshotUrls
    "solarusVersion"      (cond (eq $params.SolarusVersion nil) "" $params.SolarusVersion)
    "sourceCode"          (cond (eq $params.SourceCode nil) "" $params.SourceCode)
    "thumbnail"           $thumbnailUrl
    "title"               (cond (eq $params.Title nil) "" $params.Title)
    "version"             (cond (eq $params.Version nil) "" $params.Version)
    "website"             (cond (eq $params.Website nil) "" $params.Website)
  -}}
  {{- if (eq site.Params.search.minify true) -}}
    {{- $item | jsonify -}}
  {{- else -}}
    {{- $jsonifyOptions := dict "indent" "  " -}}
    {{- $item | jsonify $jsonifyOptions -}}
  {{- end -}}
{{- end -}}
